1 データの読み込みとマトリックスの作成 | Network Analysis Using R
…
1.1 交渉を記録したデータフレーム

例えば、以下は金華山島\(B_1\)群で2018年時点で6歳以上のメスを個体追跡した際のデータであり、1分間の瞬間サンプリングで以下を記録したデータフレーム。

- 追跡個体の活動(G: 毛づくろい、R: 休息、F: 採食、M: 移動、O: その他)

- 追跡個体が毛づくろいした場合には毛づくろいをした個体(Groomer)とされた個体(Groomee)

groom <- read_csv("data/focal_demo.csv")

groom %>% 
  filter(activity == "G")

## # A tibble: 5,057 × 9
##       No no_focal date      subject  time activity TG    Groomer Groomee
##    <dbl> <chr>    <chr>     <chr>   <dbl> <chr>    <chr> <chr>   <chr>  
##  1    10 A1       2018/10/8 Tot         9 G        G     Tot     In     
##  2    11 A1       2018/10/8 Tot        10 G        G     Tot     In     
##  3    12 A1       2018/10/8 Tot        11 G        G     Tot     J      
##  4    13 A1       2018/10/8 Tot        12 G        G     Tot     J      
##  5    15 A1       2018/10/8 Tot        14 G        G     Tot     J      
##  6    16 A1       2018/10/8 Tot        15 G        G     Tot     J      
##  7    76 A1       2018/10/8 Tot        75 G        G     Tam     Tot    
##  8    77 A1       2018/10/8 Tot        76 G        G     Tot     Tam    
##  9    78 A1       2018/10/8 Tot        77 G        G     Tot     Tam    
## 10    79 A1       2018/10/8 Tot        78 G        G     Tot     Tam    
## # … with 5,047 more rows
…
1.2 Group by individual

その他にも、以下のようにある時点・場所において確認された個体を0/1で記録した”group by individual”と呼ばれる形式のものもある。

例えば、以下は2021年交尾期の各観察日にメスが観察されたか否かを示したものである。

presence <- read_csv("data/presence_demo.csv")

presence

## # A tibble: 85 × 16
##    date    Mik   Kil   Koh   Aka   Ntr   Ten   Tot   Hen   Hot   Mei   Ako   Kor
##    <chr> <dbl> <dbl> <dbl> <dbl> <dbl> <dbl> <dbl> <dbl> <dbl> <dbl> <dbl> <dbl>
##  1 2021…     1     1     1     0     1     1     0     1     0     1     0     1
##  2 2021…     1     1     1     1     1     1     1     1     1     1     1     1
##  3 2021…     1     1     1     1     1     1     1     1     0     1     1     1
##  4 2021…     1     1     1     1     1     1     1     1     0     1     0     1
##  5 2021…     1     1     1     1     1     1     1     1     0     1     1     1
##  6 2021…     1     1     1     1     1     1     1     1     1     0     1     1
##  7 2021…     1     1     1     1     1     1     1     1     1     1     1     1
##  8 2021…     1     0     1     0     1     1     1     0     0     1     0     1
##  9 2021…     1     1     1     1     1     1     1     1     1     1     1     0
## 10 2021…     1     1     1     1     0     1     1     1     0     1     1     1
## # … with 75 more rows, and 3 more variables: Mal <dbl>, Kit <dbl>, Kun <dbl>
…
